(module R_Axial_DIN0204_L3.6mm_D1.6mm_P10.16mm_Horizontal (layer F.Cu) (tedit 5E24DA17)
  (fp_text reference REF** (at 5.08 -1.905) (layer F.SilkS)
    (effects (font (size 1 1) (thickness 0.15)))
  )
  (fp_text value R_Axial_DIN0204_L3.6mm_D1.6mm_P10.16mm_Horizontal (at 4.445 2.54) (layer F.Fab)
    (effects (font (size 1 1) (thickness 0.15)))
  )
  (fp_line (start 3.28 -0.8) (end 3.28 0.8) (layer F.Fab) (width 0.1))
  (fp_line (start 3.28 0.8) (end 6.88 0.8) (layer F.Fab) (width 0.1))
  (fp_line (start 11.43 1.05) (end 11.43 -1.05) (layer F.CrtYd) (width 0.05))
  (fp_line (start 3.16 0.92) (end 7 0.92) (layer F.SilkS) (width 0.12))
  (fp_line (start -1.27 -1.05) (end -1.27 1.05) (layer F.CrtYd) (width 0.05))
  (fp_line (start 7 0.92) (end 7 -0.92) (layer F.SilkS) (width 0.12))
  (fp_line (start 3.16 -0.92) (end 3.16 0.92) (layer F.SilkS) (width 0.12))
  (fp_line (start 7 -0.92) (end 3.16 -0.92) (layer F.SilkS) (width 0.12))
  (fp_line (start 6.88 0.8) (end 6.88 -0.8) (layer F.Fab) (width 0.1))
  (fp_line (start 6.88 -0.8) (end 3.28 -0.8) (layer F.Fab) (width 0.1))
  (fp_text user %R (at 5.08 0) (layer F.Fab)
    (effects (font (size 0.72 0.72) (thickness 0.108)))
  )
  (fp_line (start 11.43 -1.05) (end -1.27 -1.05) (layer F.CrtYd) (width 0.05))
  (fp_line (start -1.27 1.05) (end 11.43 1.05) (layer F.CrtYd) (width 0.05))
  (fp_line (start 6.985 0) (end 8.89 0) (layer F.SilkS) (width 0.12))
  (fp_line (start 3.175 0) (end 1.27 0) (layer F.SilkS) (width 0.12))
  (fp_line (start 8.89 0) (end 6.985 0) (layer F.Fab) (width 0.12))
  (fp_line (start 3.175 0) (end 1.27 0) (layer F.Fab) (width 0.12))
  (pad 1 thru_hole circle (at 0 0) (size 1.4 1.4) (drill 0.7) (layers *.Cu *.Mask))
  (pad 2 thru_hole oval (at 10.16 0) (size 1.4 1.4) (drill 0.7) (layers *.Cu *.Mask))
)
