(module ESP12-E-Adapter-DIP-16 (layer F.Cu) (tedit 5E2478F7)
  (fp_text reference REF** (at 10.16 20.32) (layer F.SilkS)
    (effects (font (size 1 1) (thickness 0.15)))
  )
  (fp_text value ESP12-E-Adapter-DIP-16 (at 12.7 7.62 90) (layer F.Fab)
    (effects (font (size 1 1) (thickness 0.15)))
  )
  (fp_line (start -5.08 -5.08) (end 1.27 -10.16) (layer Dwgs.User) (width 0.12))
  (fp_line (start 6.35 -10.16) (end -3.81 -2.54) (layer Dwgs.User) (width 0.12))
  (fp_line (start 10.16 -10.16) (end 0 -2.54) (layer Dwgs.User) (width 0.12))
  (fp_line (start 13.97 -10.16) (end 3.81 -2.54) (layer Dwgs.User) (width 0.12))
  (fp_line (start 17.78 -10.16) (end 7.62 -2.54) (layer Dwgs.User) (width 0.12))
  (fp_line (start 21.59 -10.16) (end 11.43 -2.54) (layer Dwgs.User) (width 0.12))
  (fp_line (start 19.05 -2.54) (end 25.4 -7.62) (layer Dwgs.User) (width 0.12))
  (fp_line (start 25.4 -10.16) (end 15.24 -2.54) (layer Dwgs.User) (width 0.12))
  (fp_line (start 25.4 -10.16) (end 25.4 -2.54) (layer Dwgs.User) (width 0.12))
  (fp_line (start -5.08 -10.16) (end 25.4 -10.16) (layer Dwgs.User) (width 0.12))
  (fp_line (start -5.08 -2.54) (end -5.08 -10.16) (layer Dwgs.User) (width 0.12))
  (fp_line (start 0 -2.54) (end -5.08 -2.54) (layer Dwgs.User) (width 0.12))
  (fp_line (start 25.4 -2.54) (end 0 -2.54) (layer Dwgs.User) (width 0.12))
  (fp_text user "Keep out Zone" (at 10.16 -6.35) (layer Cmts.User)
    (effects (font (size 1 1) (thickness 0.15)))
  )
  (fp_line (start 7.273334 -1.8) (end 1.5 -1.8) (layer F.SilkS) (width 0.12))
  (fp_line (start 7.273334 -1.44) (end 7.273334 -1.8) (layer F.SilkS) (width 0.12))
  (fp_line (start 13.046666 -1.44) (end 7.273334 -1.44) (layer F.SilkS) (width 0.12))
  (fp_line (start 13.046666 -1.8) (end 13.046666 -1.44) (layer F.SilkS) (width 0.12))
  (fp_line (start 18.82 -1.8) (end 13.046666 -1.8) (layer F.SilkS) (width 0.12))
  (fp_line (start 18.82 19.58) (end 18.82 -1.8) (layer F.SilkS) (width 0.12))
  (fp_line (start 1.5 19.58) (end 18.82 19.58) (layer F.SilkS) (width 0.12))
  (fp_line (start 1.5 -1.8) (end 1.5 19.58) (layer F.SilkS) (width 0.12))
  (fp_line (start 21.59 19.05) (end -1.27 19.05) (layer F.CrtYd) (width 0.12))
  (fp_line (start -1.27 19.05) (end -1.27 -1.27) (layer F.CrtYd) (width 0.12))
  (fp_line (start -1.27 -1.27) (end -5.08 -1.27) (layer F.CrtYd) (width 0.12))
  (fp_line (start -5.08 -1.27) (end -5.08 -10.16) (layer F.CrtYd) (width 0.12))
  (fp_line (start -5.08 -10.16) (end 25.4 -10.16) (layer F.CrtYd) (width 0.12))
  (fp_line (start 25.4 -10.16) (end 25.4 -1.27) (layer F.CrtYd) (width 0.12))
  (fp_line (start 25.4 -1.27) (end 21.59 -1.27) (layer F.CrtYd) (width 0.12))
  (fp_line (start 21.59 -1.27) (end 21.59 19.05) (layer F.CrtYd) (width 0.12))
  (fp_line (start 0 19.05) (end 0 1.27) (layer F.Fab) (width 0.12))
  (fp_line (start 0 1.27) (end 1.27 0) (layer F.Fab) (width 0.12))
  (fp_line (start 1.27 0) (end 0 -1.27) (layer F.Fab) (width 0.12))
  (fp_line (start 0 -1.27) (end 0 -2.54) (layer F.Fab) (width 0.12))
  (fp_line (start 0 -2.54) (end 20.32 -2.54) (layer F.Fab) (width 0.12))
  (fp_line (start 20.32 -2.54) (end 20.32 19.05) (layer F.Fab) (width 0.12))
  (fp_line (start 20.32 19.05) (end 0 19.05) (layer F.Fab) (width 0.12))
  (fp_text user REF** (at 10.16 7.62 90) (layer F.Fab)
    (effects (font (size 1 1) (thickness 0.15)))
  )
  (pad 22 thru_hole circle (at 20.32 0 270) (size 1.6 1.6) (drill 0.8) (layers *.Cu *.Mask))
  (pad 21 thru_hole circle (at 20.32 2.54 270) (size 1.6 1.6) (drill 0.8) (layers *.Cu *.Mask))
  (pad 20 thru_hole circle (at 20.32 5.08 270) (size 1.6 1.6) (drill 0.8) (layers *.Cu *.Mask))
  (pad 19 thru_hole circle (at 20.32 7.62 270) (size 1.6 1.6) (drill 0.8) (layers *.Cu *.Mask))
  (pad 18 thru_hole circle (at 20.32 10.16 270) (size 1.6 1.6) (drill 0.8) (layers *.Cu *.Mask))
  (pad 17 thru_hole circle (at 20.32 12.7 270) (size 1.6 1.6) (drill 0.8) (layers *.Cu *.Mask))
  (pad 16 thru_hole circle (at 20.32 15.24 270) (size 1.6 1.6) (drill 0.8) (layers *.Cu *.Mask))
  (pad 15 thru_hole circle (at 20.32 17.78 270) (size 1.6 1.6) (drill 0.8) (layers *.Cu *.Mask))
  (pad 8 thru_hole circle (at 0 17.78 270) (size 1.6 1.6) (drill 0.8) (layers *.Cu *.Mask))
  (pad 7 thru_hole circle (at 0 15.24 270) (size 1.6 1.6) (drill 0.8) (layers *.Cu *.Mask))
  (pad 6 thru_hole circle (at 0 12.7 270) (size 1.6 1.6) (drill 0.8) (layers *.Cu *.Mask))
  (pad 5 thru_hole circle (at 0 10.16 270) (size 1.6 1.6) (drill 0.8) (layers *.Cu *.Mask))
  (pad 4 thru_hole circle (at 0 7.62 270) (size 1.6 1.6) (drill 0.8) (layers *.Cu *.Mask))
  (pad 3 thru_hole circle (at 0 5.08 270) (size 1.6 1.6) (drill 0.8) (layers *.Cu *.Mask))
  (pad 2 thru_hole circle (at 0 2.54 270) (size 1.6 1.6) (drill 0.8) (layers *.Cu *.Mask))
  (pad 1 thru_hole circle (at 0 0 270) (size 1.6 1.6) (drill 0.8) (layers *.Cu *.Mask))
)
